<?xml version="1.0" encoding="iso-8859-1"?>
<!-- Generator: Adobe Illustrator 19.0.0, SVG Export Plug-In . SVG Version: 6.00 Build 0)  -->
<svg xmlns="http://www.w3.org/2000/svg" xmlns:xlink="http://www.w3.org/1999/xlink" version="1.1" id="Layer_1" x="0px" y="0px" viewBox="0 0 512 512" style="enable-background:new 0 0 512 512;" xml:space="preserve" width="512px" height="512px">
<g>
	<g>
		<path d="M441.242,87.859L355.731,2.347C354.228,0.844,352.189,0,350.063,0H93.528C79.677,0,68.409,11.268,68.409,25.119v461.762    c0,13.851,11.268,25.119,25.119,25.119h324.944c13.851,0,25.119-11.268,25.119-25.119V93.528    C443.591,91.401,442.746,89.363,441.242,87.859z M358.079,27.37l58.141,58.141h-49.056c-5.01,0-9.086-4.076-9.086-9.086V27.37z     M427.557,486.881c0,5.01-4.076,9.086-9.086,9.086H93.528c-5.01,0-9.086-4.076-9.086-9.086V25.119c0-5.01,4.076-9.086,9.086-9.086    h248.518v60.393c0,13.851,11.268,25.119,25.119,25.119h60.393V486.881z" fill="#4abace"/>
	</g>
</g>
<g>
	<g>
		<path d="M332.144,202.584l-23.075-84.611c-2.467-9.043-10.736-15.359-20.11-15.359h-14.611c-9.374,0-17.642,6.316-20.109,15.359    l-23.075,84.611c-1.165,4.271,1.353,8.678,5.626,9.843c4.269,1.164,8.678-1.354,9.843-5.626l5.385-19.746h59.272l5.385,19.746    c0.973,3.566,4.204,5.91,7.729,5.91c0.698,0,1.408-0.092,2.114-0.284C330.79,211.263,333.309,206.855,332.144,202.584z     M256.39,171.023l13.317-48.831c0.569-2.086,2.478-3.544,4.64-3.544h14.611c2.162,0,4.071,1.458,4.64,3.544l13.318,48.831H256.39z    " fill="#4abace"/>
	</g>
</g>
<g>
	<g>
		<path d="M384.267,153.921h-9.086v-9.086c0-4.427-3.589-8.017-8.017-8.017c-4.427,0-8.017,3.589-8.017,8.017v9.086h-9.086    c-4.427,0-8.017,3.589-8.017,8.017s3.589,8.017,8.017,8.017h9.086v9.086c0,4.427,3.589,8.017,8.017,8.017    c4.427,0,8.017-3.589,8.017-8.017v-9.086h9.086c4.427,0,8.017-3.589,8.017-8.017S388.695,153.921,384.267,153.921z" fill="#4abace"/>
	</g>
</g>
<g>
	<g>
		<path d="M375.716,273.637H256c-4.427,0-8.017,3.589-8.017,8.017s3.589,8.017,8.017,8.017h119.716c4.427,0,8.017-3.589,8.017-8.017    S380.143,273.637,375.716,273.637z" fill="#4abace"/>
	</g>
</g>
<g>
	<g>
		<path d="M324.409,307.841H256c-4.427,0-8.017,3.589-8.017,8.017s3.589,8.017,8.017,8.017h68.409c4.427,0,8.017-3.589,8.017-8.017    S328.837,307.841,324.409,307.841z" fill="#4abace"/>
	</g>
</g>
<g>
	<g>
		<path d="M218.462,258.465c-3.363-2.882-8.422-2.493-11.304,0.869l-44.804,52.27l-19.657-26.209    c-2.656-3.541-7.68-4.26-11.223-1.603c-3.542,2.656-4.26,7.681-1.603,11.223l25.653,34.205c1.459,1.945,3.722,3.123,6.153,3.202    c0.088,0.002,0.174,0.004,0.262,0.004c2.336,0,4.561-1.02,6.086-2.799l51.307-59.858    C222.212,266.407,221.823,261.346,218.462,258.465z" fill="#4abace"/>
	</g>
</g>
<g>
	<g>
		<path d="M375.716,376.251H256c-4.427,0-8.017,3.589-8.017,8.017c0,4.427,3.589,8.017,8.017,8.017h119.716    c4.427,0,8.017-3.589,8.017-8.017C383.733,379.84,380.143,376.251,375.716,376.251z" fill="#4abace"/>
	</g>
</g>
<g>
	<g>
		<path d="M324.409,410.455H256c-4.427,0-8.017,3.589-8.017,8.017c0,4.427,3.589,8.017,8.017,8.017h68.409    c4.427,0,8.017-3.589,8.017-8.017C332.426,414.044,328.837,410.455,324.409,410.455z" fill="#4abace"/>
	</g>
</g>
<g>
	<g>
		<path d="M218.462,361.079c-3.363-2.882-8.422-2.493-11.304,0.869l-44.804,52.27l-19.657-26.209    c-2.656-3.541-7.68-4.26-11.223-1.603c-3.542,2.656-4.26,7.681-1.603,11.223l25.653,34.205c1.459,1.945,3.722,3.123,6.153,3.202    c0.088,0.002,0.174,0.004,0.262,0.004c2.336,0,4.561-1.02,6.086-2.799l51.307-59.858    C222.212,369.021,221.823,363.959,218.462,361.079z" fill="#4abace"/>
	</g>
</g>
<g>
	<g>
		<path d="M221.795,85.511h-85.511c-4.427,0-8.017,3.589-8.017,8.017s3.589,8.017,8.017,8.017h85.511    c4.427,0,8.017-3.589,8.017-8.017S226.223,85.511,221.795,85.511z" fill="#4abace"/>
	</g>
</g>
<g>
	<g>
		<path d="M187.591,119.716h-51.307c-4.427,0-8.017,3.589-8.017,8.017s3.589,8.017,8.017,8.017h51.307    c4.427,0,8.017-3.589,8.017-8.017S192.018,119.716,187.591,119.716z" fill="#4abace"/>
	</g>
</g>
<g>
</g>
<g>
</g>
<g>
</g>
<g>
</g>
<g>
</g>
<g>
</g>
<g>
</g>
<g>
</g>
<g>
</g>
<g>
</g>
<g>
</g>
<g>
</g>
<g>
</g>
<g>
</g>
<g>
</g>
</svg>
