<?xml version="1.0" encoding="iso-8859-1"?>
<!-- Generator: Adobe Illustrator 17.1.0, SVG Export Plug-In . SVG Version: 6.00 Build 0)  -->
<!DOCTYPE svg PUBLIC "-//W3C//DTD SVG 1.1//EN" "http://www.w3.org/Graphics/SVG/1.1/DTD/svg11.dtd">
<svg version="1.1" id="Capa_1" xmlns="http://www.w3.org/2000/svg" xmlns:xlink="http://www.w3.org/1999/xlink" x="0px" y="0px"
	 viewBox="0 0 359.232 359.232" style="enable-background:new 0 0 359.232 359.232;" xml:space="preserve">
<g>
	<path d="M191.751,12.136c-54.216,0-105.326,26.438-136.718,70.723c-4.791,6.758-3.196,16.121,3.563,20.912
		c6.758,4.789,16.121,3.195,20.912-3.563c25.777-36.363,67.737-58.072,112.244-58.072c75.807,0,137.481,61.673,137.481,137.48
		s-61.674,137.48-137.481,137.48c-63.983,0-119.424-44.716-133.836-105.903l1.171,1.491c5.116,6.515,14.546,7.65,21.062,2.533
		c6.516-5.117,7.649-14.546,2.533-21.062L54.57,158.36c-3.902-4.968-9.834-7.653-15.859-7.185
		c-6.028,0.469-11.469,4.04-14.556,9.551L1.915,200.435c-4.048,7.228-1.47,16.369,5.758,20.417c2.319,1.299,4.834,1.916,7.316,1.915
		c5.235,0,10.317-2.747,13.073-7.626c7.548,34.871,26.163,66.613,53.256,90.391c30.539,26.803,69.758,41.564,110.434,41.564
		c92.349,0,167.481-75.131,167.481-167.48S284.1,12.136,191.751,12.136z"/>
	<path d="M287.319,176.616c0-52.77-42.931-95.701-95.701-95.701s-95.701,42.931-95.701,95.701s42.931,95.701,95.701,95.701
		S287.319,229.386,287.319,176.616z M172.617,172.019v-48.403c0-8.284,6.716-15,15-15s15,6.716,15,15v38h35c8.284,0,15,6.716,15,15
		s-6.716,15-15,15H192.6C181.395,191.616,172.617,183.008,172.617,172.019z"/>
</g>
<g>
</g>
<g>
</g>
<g>
</g>
<g>
</g>
<g>
</g>
<g>
</g>
<g>
</g>
<g>
</g>
<g>
</g>
<g>
</g>
<g>
</g>
<g>
</g>
<g>
</g>
<g>
</g>
<g>
</g>
</svg>
