<?xml version="1.0" encoding="iso-8859-1"?>
<!-- Generator: Adobe Illustrator 19.0.0, SVG Export Plug-In . SVG Version: 6.00 Build 0)  -->
<svg xmlns="http://www.w3.org/2000/svg" xmlns:xlink="http://www.w3.org/1999/xlink" version="1.1" id="Layer_1" x="0px" y="0px" viewBox="0 0 512 512" style="enable-background:new 0 0 512 512;" xml:space="preserve" width="512px" height="512px">
<g>
	<g>
		<path d="M401.28,168.438l-117.56-31.35c-1.354-0.361-2.778-0.361-4.131,0l-117.56,31.35c-4.871,1.3-8.144,5.56-8.144,10.601    s3.273,9.302,8.145,10.601l51.749,13.799v35.457c0,9.136,7.432,16.568,16.568,16.568H332.96c9.136,0,16.568-7.432,16.568-16.568    v-35.456l18.097-4.826l0.074,48.845c0.006,4.423,3.595,8.005,8.017,8.005c0.004,0,0.009,0,0.013,0    c4.427-0.006,8.011-3.601,8.005-8.029l-0.08-53.095l17.627-4.7c4.871-1.3,8.144-5.56,8.144-10.601    C409.425,174,406.151,169.738,401.28,168.438z M333.495,238.898c0,0.295-0.239,0.534-0.534,0.534H230.347    c-0.295,0-0.534-0.239-0.534-0.534v-31.182l49.775,13.273c0.677,0.181,1.371,0.27,2.066,0.27c0.695,0,1.388-0.09,2.066-0.27    l49.775-13.273V238.898z M281.653,204.946l-97.155-25.907l97.155-25.908l97.155,25.908L281.653,204.946z" fill="#FFFFFF"/>
	</g>
</g>
<g>
	<g>
		<circle cx="375.716" cy="273.102" r="8.017" fill="#FFFFFF"/>
	</g>
</g>
<g>
	<g>
		<path d="M466.896,87.859L381.384,2.347C379.882,0.844,377.842,0,375.716,0H119.182c-13.851,0-25.119,11.268-25.119,25.119v291.273    H67.875c-13.851,0-25.119,11.268-25.119,25.119v85.511c0,13.851,11.268,25.119,25.119,25.119h26.188v34.739    c0,13.851,11.268,25.119,25.119,25.119h324.944c13.851,0,25.119-11.268,25.119-25.119V93.528    C469.244,91.401,468.4,89.363,466.896,87.859z M383.733,27.37l58.141,58.141h-49.056c-5.01,0-9.086-4.076-9.086-9.086V27.37z     M67.875,436.109c-5.01,0-9.086-4.076-9.086-9.086v-85.511c0-5.01,4.076-9.086,9.086-9.086h230.881    c5.01,0,9.086,4.076,9.086,9.086v85.511c0,5.01-4.076,9.086-9.086,9.086H67.875z M453.211,486.881c0,5.01-4.076,9.086-9.086,9.086    H119.182c-5.01,0-9.086-4.076-9.086-9.086v-34.739h188.66c13.851,0,25.119-11.268,25.119-25.119v-85.511    c0-13.851-11.268-25.119-25.119-25.119h-188.66V25.119c0-5.01,4.076-9.086,9.086-9.086h248.518v60.393    c0,13.851,11.268,25.119,25.119,25.119h60.393V486.881z" fill="#FFFFFF"/>
	</g>
</g>
<g>
	<g>
		<path d="M110.63,350.597H84.977c-4.427,0-8.017,3.589-8.017,8.017v51.307c0,4.427,3.589,8.017,8.017,8.017h25.653    c18.566,0,33.67-15.105,33.67-33.67C144.301,365.702,129.196,350.597,110.63,350.597z M110.63,401.904H92.994V366.63h17.637    c9.725,0,17.637,7.912,17.637,17.637S120.355,401.904,110.63,401.904z" fill="#FFFFFF"/>
	</g>
</g>
<g>
	<g>
		<path d="M187.591,350.597c-18.566,0-33.67,15.105-33.67,33.67c0,18.566,15.105,33.67,33.67,33.67s33.67-15.105,33.67-33.67    C221.261,365.702,206.156,350.597,187.591,350.597z M187.591,401.904c-9.725,0-17.637-7.912-17.637-17.637    s7.912-17.637,17.637-17.637s17.637,7.912,17.637,17.637S197.316,401.904,187.591,401.904z" fill="#FFFFFF"/>
	</g>
</g>
<g>
	<g>
		<path d="M289.019,395.397c-3.3-2.953-8.368-2.672-11.32,0.626c-3.345,3.738-8.137,5.881-13.147,5.881    c-9.725,0-17.637-7.912-17.637-17.637s7.912-17.637,17.637-17.637c5.02,0,9.818,2.15,13.162,5.898    c2.948,3.303,8.017,3.59,11.318,0.642c3.303-2.948,3.59-8.017,0.642-11.318c-6.384-7.153-15.542-11.255-25.124-11.255    c-18.566,0-33.67,15.105-33.67,33.67c0,18.566,15.105,33.67,33.67,33.67c9.566,0,18.712-4.091,25.094-11.221    C292.599,403.416,292.318,398.349,289.019,395.397z" fill="#FFFFFF"/>
	</g>
</g>
<g>
</g>
<g>
</g>
<g>
</g>
<g>
</g>
<g>
</g>
<g>
</g>
<g>
</g>
<g>
</g>
<g>
</g>
<g>
</g>
<g>
</g>
<g>
</g>
<g>
</g>
<g>
</g>
<g>
</g>
</svg>
