<?xml version="1.0" encoding="iso-8859-1"?>
<svg xmlns="http://www.w3.org/2000/svg" xmlns:xlink="http://www.w3.org/1999/xlink" version="1.1" viewBox="0 0 295.82 295.82" enable-background="new 0 0 295.82 295.82" width="512px" height="512px">
  <g>
    <g>
      <path d="M147.91,0C66.124,0,0,66.124,0,147.91s66.124,147.91,147.91,147.91s147.91-66.124,147.91-147.91S229.696,0,147.91,0z     M147.91,278.419c-71.345,0-130.509-59.164-130.509-130.509S76.565,17.401,147.91,17.401S278.419,76.565,278.419,147.91    S219.255,278.419,147.91,278.419z" fill="#f22628"/>
      <path d="m189.673,106.147c-3.48-3.48-8.701-3.48-12.181,0l-30.452,30.453-30.452-30.452c-3.48-3.48-8.701-3.48-12.181,0s-3.48,8.701 0,12.181l30.452,30.452-30.452,30.452c-3.48,3.48-3.48,8.701 0,12.181 1.74,1.74 5.22,1.74 6.96,1.74s5.22-1.74 5.22-1.74l30.452-30.452 30.452,30.452c1.74,1.74 5.22,1.74 6.96,1.74 1.74,0 3.48-1.74 5.22-1.74 3.48-3.48 3.48-8.701 0-12.181l-30.452-30.452 30.452-30.452c3.483-3.481 3.483-8.702 0.002-12.182z" fill="#f22628"/>
    </g>
  </g>
</svg>
